8 Ego Networks – R for Social Network Analysis
…
A second common source of ego network data involves deriving them from complete network datasets that already contain information about all actors and ties within a bounded population. In this case, researchers can extract the local network surrounding a focal actor directly from the larger structure. Simple extraction procedures allow analysts to isolate an ego and their direct ties, though these methods may omit information about relationships among the alters themselves. More comprehensive approaches rely on identifying a defined neighborhood, such as through a previously constructed attribute or partition that marks members of a particular ego’s local environment, and then generating a subgraph that preserves both ego–alter and alter–alter ties. Unlike survey-generated ego networks, these extracted ego networks remain embedded within a known global structure, enabling comparisons between local and whole-network properties.

8.2.1 Constructing an Ego Network with egor

An egor object contains all data levels associated with ego-centered network analysis, those levels are: ego, alter, alter-alter ties. We will work with the built-in example datasets provided by the egor package: data("egos32"), data("alters32"), and data("aaties32"). These internal data frames contain information at the three core levels of ego-centered network analysis—ego attributes, alter attributes, and alter–alter ties; allowing us to construct a complete egor object without needing to import external data. Using these datasets ensures that everyone is working with the same structured example while learning how the different data levels are linked together and prepared for analysis.

data("alters32")
data("egos32")
data("aaties32")
egos32

# A tibble: 32 × 6
   .EGOID sex   age      age.years country   income
    <dbl> <chr> <fct>        <int> <chr>      <dbl>
 1      1 m     56 - 65         63 Australia  29930
 2      2 m     26 - 35         33 Germany    17885
 3      3 m     66 - 100        74 Germany    20805
 4      4 w     18 - 25         21 Poland     29565
 5      5 m     0 - 17           9 Germany    15330
 6      6 m     0 - 17           6 Australia  23360
 7      7 m     66 - 100        84 Australia  19345
 8      8 w     66 - 100       100 Poland     35040
 9      9 m     36 - 45         38 USA        64605
10     10 m     0 - 17          14 Australia  49275
# ℹ 22 more rows

alters32

# A tibble: 384 × 7
   .ALTID .EGOID sex   age      age.years country   income
    <int>  <dbl> <chr> <fct>        <int> <chr>      <dbl>
 1      1      1 m     46 - 55         48 USA        45625
 2      2      1 m     0 - 17           5 Germany    52925
 3      3      1 w     26 - 35         35 Australia  60225
 4      4      1 w     0 - 17           3 Poland     25550
 5      5      1 m     66 - 100        97 Australia  45260
 6      6      1 w     26 - 35         29 Germany     8395
 7      7      1 m     26 - 35         32 USA        54020
 8      8      1 w     46 - 55         49 USA        60955
 9      9      1 m     56 - 65         60 Germany    39055
10     10      1 w     46 - 55         52 Australia   7300
# ℹ 374 more rows

aaties32

# A tibble: 1,056 × 4
   .EGOID .SRCID .TGTID weight
    <int>  <int>  <int>  <dbl>
 1     20      1      2  0.667
 2     25      6     10  0.667
 3      9      6      8  0.667
 4     31      2     10  0.667
 5     24      1     12  0.333
 6     11      9     11  0.333
 7      7      3      6  0.667
 8      8      6      7  0.667
 9     32      3      7  0.667
10     26      2     10  1    
# ℹ 1,046 more rows
…
